{
    "id": "order111",
    "userID": "222",
    "transactionDate": "2020-03-10T1515:00:00:00Z",
    "status": "To be shipped by seller",
    "Total": 1000

}

{
    "id": "order222",
    "userID": "111",
    "transactionDate": "2020-03-10T1515:00:00:00Z",
    "status": "Out of Stock",
    "Total": 0

}